{
    "/js/home-one.js": "/js/home-one.js?id=b4440c19d37fa0fd6b74",
    "/css/material/style.css": "/css/material/style.css?id=6a385d9a1c1c9362b910",
    "/css/colors/blue.css": "/css/colors/blue.css?id=c3535f01fcdf9d3f5e0f",
    "/css/colors/blue-dark.css": "/css/colors/blue-dark.css?id=4104cd4fc0c6b84f89ec",
    "/css/colors/default.css": "/css/colors/default.css?id=d1ab0be6de4c585f2e7d",
    "/css/colors/default-dark.css": "/css/colors/default-dark.css?id=b9cefef222661ab1201b",
    "/css/colors/green.css": "/css/colors/green.css?id=62034af99bd8fd78c8a0",
    "/css/colors/green-dark.css": "/css/colors/green-dark.css?id=b90809e9a3a1b96cf840",
    "/css/colors/megna.css": "/css/colors/megna.css?id=b35ca6952669d840e43f",
    "/css/colors/megna-dark.css": "/css/colors/megna-dark.css?id=11f4123e55c66235de8a",
    "/css/colors/purple.css": "/css/colors/purple.css?id=d033d7dc0a04dd12eca1",
    "/css/colors/purple-dark.css": "/css/colors/purple-dark.css?id=b0091ae3437bb6199e5d",
    "/css/colors/red.css": "/css/colors/red.css?id=b3bbe14f47d1e7d330d5",
    "/css/colors/red-dark.css": "/css/colors/red-dark.css?id=b9f1a41bf17c193e1c5c",
    "/css/style.css": "/css/style.css",
    "/js/home-two.js": "/js/home-two.js?id=775a9623fc5844a8a740"
}
